^C:\USERS\STANLEX\SOURCE\REPOS\DLLSTANCOM\DLLMAIN.CPP|C:\USERS\STANLEX\SOURCE\REPOS\DLLSTANCOM\LSTANCOM.CPP|C:\USERS\STANLEX\SOURCE\REPOS\DLLSTANCOM\PCH.CPP|C:\USERS\STANLEX\SOURCE\REPOS\DLLSTANCOM\REGISTRY.CPP|C:\USERS\STANLEX\SOURCE\REPOS\DLLSTANCOM\STANCOM.CPP|C:\USERS\STANLEX\SOURCE\REPOS\DLLSTANCOM\STANFACTORY.CPP
C:\USERS\STANLEX\SOURCE\REPOS\DLLSTANCOM\DEBUG\VC143.PDB
C:\USERS\STANLEX\SOURCE\REPOS\DLLSTANCOM\DEBUG\VC143.IDB
C:\USERS\STANLEX\SOURCE\REPOS\DLLSTANCOM\DEBUG\STANFACTORY.OBJ
C:\USERS\STANLEX\SOURCE\REPOS\DLLSTANCOM\DEBUG\STANCOM.OBJ
C:\USERS\STANLEX\SOURCE\REPOS\DLLSTANCOM\DEBUG\REGISTRY.OBJ
C:\USERS\STANLEX\SOURCE\REPOS\DLLSTANCOM\DEBUG\PCH.OBJ
C:\USERS\STANLEX\SOURCE\REPOS\DLLSTANCOM\DEBUG\LSTANCOM.OBJ
C:\USERS\STANLEX\SOURCE\REPOS\DLLSTANCOM\DEBUG\DLLMAIN.OBJ
^C:\USERS\STANLEX\SOURCE\REPOS\DLLSTANCOM\DLLMAIN.CPP
C:\USERS\STANLEX\SOURCE\REPOS\DLLSTANCOM\DEBUG\VC143.PDB
^C:\USERS\STANLEX\SOURCE\REPOS\DLLSTANCOM\LSTANCOM.CPP
C:\USERS\STANLEX\SOURCE\REPOS\DLLSTANCOM\DEBUG\VC143.PDB
^C:\USERS\STANLEX\SOURCE\REPOS\DLLSTANCOM\PCH.CPP
C:\USERS\STANLEX\SOURCE\REPOS\DLLSTANCOM\DEBUG\VC143.PDB
^C:\USERS\STANLEX\SOURCE\REPOS\DLLSTANCOM\REGISTRY.CPP
C:\USERS\STANLEX\SOURCE\REPOS\DLLSTANCOM\DEBUG\VC143.PDB
^C:\USERS\STANLEX\SOURCE\REPOS\DLLSTANCOM\STANCOM.CPP
C:\USERS\STANLEX\SOURCE\REPOS\DLLSTANCOM\DEBUG\VC143.PDB
^C:\USERS\STANLEX\SOURCE\REPOS\DLLSTANCOM\STANFACTORY.CPP
C:\USERS\STANLEX\SOURCE\REPOS\DLLSTANCOM\DEBUG\VC143.PDB
