^C:\USERS\STANLEX\SOURCE\REPOS\DLLSTANCOM\DEBUG\DLLMAIN.OBJ|C:\USERS\STANLEX\SOURCE\REPOS\DLLSTANCOM\DEBUG\LSTANCOM.OBJ|C:\USERS\STANLEX\SOURCE\REPOS\DLLSTANCOM\DEBUG\PCH.OBJ|C:\USERS\STANLEX\SOURCE\REPOS\DLLSTANCOM\DEBUG\REGISTRY.OBJ|C:\USERS\STANLEX\SOURCE\REPOS\DLLSTANCOM\DEBUG\STANCOM.OBJ|C:\USERS\STANLEX\SOURCE\REPOS\DLLSTANCOM\DEBUG\STANFACTORY.OBJ
/OUT:"C:\USERS\STANLEX\SOURCE\REPOS\DLLSTANCOM\DEBUG\LSTANCOM.DLL" /INCREMENTAL /ILK:"DEBUG\LSTANCOM.ILK" /NOLOGO KERNEL32.LIB USER32.LIB GDI32.LIB WINSPOOL.LIB COMDLG32.LIB ADVAPI32.LIB SHELL32.LIB OLE32.LIB OLEAUT32.LIB UUID.LIB ODBC32.LIB ODBCCP32.LIB /DEF:"LSTANCOM.DEF" /MANIFEST /MANIFESTUAC:NO /manifest:embed /DEBUG /PDB:"C:\USERS\STANLEX\SOURCE\REPOS\DLLSTANCOM\DEBUG\LSTANCOM.PDB" /SUBSYSTEM:WINDOWS /TLBID:1 /DYNAMICBASE /NXCOMPAT /IMPLIB:"C:\USERS\STANLEX\SOURCE\REPOS\DLLSTANCOM\DEBUG\LSTANCOM.LIB" /MACHINE:X86 /DLL DEBUG\DLLMAIN.OBJ
DEBUG\LSTANCOM.OBJ
DEBUG\PCH.OBJ
DEBUG\REGISTRY.OBJ
DEBUG\STANCOM.OBJ
DEBUG\STANFACTORY.OBJ
