^C:\USERS\STANLEX\SOURCE\REPOS\DLLSTANCOM\DEBUG\CLIENTSTANCOM.OBJ
C:\USERS\STANLEX\SOURCE\REPOS\DLLSTANCOM\DEBUG\CLIENTSTANCOM.ILK
C:\USERS\STANLEX\SOURCE\REPOS\DLLSTANCOM\DEBUG\CLIENTSTANCOM.EXE
C:\USERS\STANLEX\SOURCE\REPOS\DLLSTANCOM\DEBUG\CLIENTSTANCOM.PDB
