^C:\USERS\STANLEX\SOURCE\REPOS\DLLSTANCOM\DLLMAIN.CPP
/c /ZI /JMC /nologo /W3 /WX- /diagnostics:column /sdl /Od /Oy- /D WIN32 /D _DEBUG /D DLLSTANCOM_EXPORTS /D _WINDOWS /D _USRDLL /D _WINDLL /D _UNICODE /D UNICODE /Gm- /EHsc /RTC1 /MDd /GS /fp:precise /Zc:wchar_t /Zc:forScope /Zc:inline /permissive- /Fo"DEBUG\\" /Fd"DEBUG\VC143.PDB" /external:W3 /Gd /TP /analyze- /FC C:\USERS\STANLEX\SOURCE\REPOS\DLLSTANCOM\DLLMAIN.CPP
^C:\USERS\STANLEX\SOURCE\REPOS\DLLSTANCOM\LSTANCOM.CPP
/c /ZI /JMC /nologo /W3 /WX- /diagnostics:column /sdl /Od /Oy- /D WIN32 /D _DEBUG /D DLLSTANCOM_EXPORTS /D _WINDOWS /D _USRDLL /D _WINDLL /D _UNICODE /D UNICODE /Gm- /EHsc /RTC1 /MDd /GS /fp:precise /Zc:wchar_t /Zc:forScope /Zc:inline /permissive- /Fo"DEBUG\\" /Fd"DEBUG\VC143.PDB" /external:W3 /Gd /TP /analyze- /FC C:\USERS\STANLEX\SOURCE\REPOS\DLLSTANCOM\LSTANCOM.CPP
^C:\USERS\STANLEX\SOURCE\REPOS\DLLSTANCOM\PCH.CPP
/c /ZI /JMC /nologo /W3 /WX- /diagnostics:column /sdl /Od /Oy- /D WIN32 /D _DEBUG /D DLLSTANCOM_EXPORTS /D _WINDOWS /D _USRDLL /D _WINDLL /D _UNICODE /D UNICODE /Gm- /EHsc /RTC1 /MDd /GS /fp:precise /Zc:wchar_t /Zc:forScope /Zc:inline /permissive- /Fo"DEBUG\\" /Fd"DEBUG\VC143.PDB" /external:W3 /Gd /TP /analyze- /FC C:\USERS\STANLEX\SOURCE\REPOS\DLLSTANCOM\PCH.CPP
^C:\USERS\STANLEX\SOURCE\REPOS\DLLSTANCOM\REGISTRY.CPP
/c /ZI /JMC /nologo /W3 /WX- /diagnostics:column /sdl /Od /Oy- /D WIN32 /D _DEBUG /D DLLSTANCOM_EXPORTS /D _WINDOWS /D _USRDLL /D _WINDLL /D _UNICODE /D UNICODE /Gm- /EHsc /RTC1 /MDd /GS /fp:precise /Zc:wchar_t /Zc:forScope /Zc:inline /permissive- /Fo"DEBUG\\" /Fd"DEBUG\VC143.PDB" /external:W3 /Gd /TP /analyze- /FC C:\USERS\STANLEX\SOURCE\REPOS\DLLSTANCOM\REGISTRY.CPP
^C:\USERS\STANLEX\SOURCE\REPOS\DLLSTANCOM\STANCOM.CPP
/c /ZI /JMC /nologo /W3 /WX- /diagnostics:column /sdl /Od /Oy- /D WIN32 /D _DEBUG /D DLLSTANCOM_EXPORTS /D _WINDOWS /D _USRDLL /D _WINDLL /D _UNICODE /D UNICODE /Gm- /EHsc /RTC1 /MDd /GS /fp:precise /Zc:wchar_t /Zc:forScope /Zc:inline /permissive- /Fo"DEBUG\\" /Fd"DEBUG\VC143.PDB" /external:W3 /Gd /TP /analyze- /FC C:\USERS\STANLEX\SOURCE\REPOS\DLLSTANCOM\STANCOM.CPP
^C:\USERS\STANLEX\SOURCE\REPOS\DLLSTANCOM\STANFACTORY.CPP
/c /ZI /JMC /nologo /W3 /WX- /diagnostics:column /sdl /Od /Oy- /D WIN32 /D _DEBUG /D DLLSTANCOM_EXPORTS /D _WINDOWS /D _USRDLL /D _WINDLL /D _UNICODE /D UNICODE /Gm- /EHsc /RTC1 /MDd /GS /fp:precise /Zc:wchar_t /Zc:forScope /Zc:inline /permissive- /Fo"DEBUG\\" /Fd"DEBUG\VC143.PDB" /external:W3 /Gd /TP /analyze- /FC C:\USERS\STANLEX\SOURCE\REPOS\DLLSTANCOM\STANFACTORY.CPP
