^C:\USERS\STANLEX\SOURCE\REPOS\DLLSTANCOM\DEBUG\DLLMAIN.OBJ|C:\USERS\STANLEX\SOURCE\REPOS\DLLSTANCOM\DEBUG\LSTANCOM.OBJ|C:\USERS\STANLEX\SOURCE\REPOS\DLLSTANCOM\DEBUG\PCH.OBJ|C:\USERS\STANLEX\SOURCE\REPOS\DLLSTANCOM\DEBUG\REGISTRY.OBJ|C:\USERS\STANLEX\SOURCE\REPOS\DLLSTANCOM\DEBUG\STANCOM.OBJ|C:\USERS\STANLEX\SOURCE\REPOS\DLLSTANCOM\DEBUG\STANFACTORY.OBJ
C:\USERS\STANLEX\SOURCE\REPOS\DLLSTANCOM\DEBUG\DLLSTANCOM.ILK
C:\USERS\STANLEX\SOURCE\REPOS\DLLSTANCOM\DEBUG\DLLSTANCOM.DLL
C:\USERS\STANLEX\SOURCE\REPOS\DLLSTANCOM\DEBUG\DLLSTANCOM.PDB
